
{
    "version": 2,
    "builds": [
      {
        "src": "app.py",
        "use": "@vercel/python"
      }
    ],
    "routes": [
      {
        "src": "/about",
        "dest": "/app.py"
      },
      {
        "src": "/contact",
        "dest": "/app.py"
      },
      {
        "src": "/services",
        "dest": "/app.py"
      },
      {
        "src": "/submit",
        "dest": "/app.py"
      },
      {
        "src": "/(.*)",
        "dest": "/app.py"
      }
    ]
  }
  